…
## Another Way to Look at Data {.smaller}


```r
rawData
```

```
## # A tibble: 72 x 9
##     subject   age gender treatment startWeight endWeight timeElapsed
##       <chr> <dbl>  <chr>     <chr>       <dbl>     <dbl>       <dbl>
##  1 TPID1258    75 Female Treatment        76.7        NA          71
##  2 TPID1032    73   Male   Control        99.4      99.9          30
##  3 TPID0594    66   Male Treatment        51.0      84.2          75
##  4 TPID1788    64 Female Treatment        91.7      95.7          52
##  5 TPID0957    78   Male Treatment        51.0      64.4          37
##  6 TPID1695    73 Female   Control        98.5      95.5          37
##  7 TPID1673    72   Male   Control       118.0     115.0          32
##  8 TPID0410    77   Male Treatment        91.7      77.4          69
##  9 TPID0065    88 Female   Control        83.1      85.0          45
## 10 TPID1918    76   Male Treatment        82.7      71.5          67
## # ... with 62 more rows, and 2 more variables: staffID1 <chr>,
## #   staffID2 <chr>
```
…
We'll take this apart bit by bit.

## Take a Look at the transformed data {.smaller}


```r
# We filtered for "Males" and "mutated" some data
cleanData
```

```
## # A tibble: 42 x 11
##     subject   age gender treatment startWeight endWeight timeElapsed
##       <chr> <dbl>  <chr>     <chr>       <dbl>     <dbl>       <dbl>
##  1 TPID1032    73   Male   Control        99.4      99.9          30
##  2 TPID0594    66   Male Treatment        51.0      84.2          75
##  3 TPID0957    78   Male Treatment        51.0      64.4          37
##  4 TPID1673    72   Male   Control       118.0     115.0          32
##  5 TPID0410    77   Male Treatment        91.7      77.4          69
##  6 TPID1918    76   Male Treatment        82.7      71.5          67
##  7 TPID0390    79   Male   Control        81.2        NA          56
##  8 TPID1434    82   Male   Control        51.0      87.2          50
##  9 TPID0965    66   Male Treatment        51.0      72.5          40
## 10 TPID0531    73   Male   Control        74.2      74.7          77
## # ... with 32 more rows, and 4 more variables: staffID1 <chr>,
## #   staffID2 <chr>, diffWeight <dbl>, weightChangePerDay <dbl>
```
…
## `dplyr::mutate()` {.smaller}

`Mutate` can alse be used to modify existing variables or delete variables:


```r
rawData %>%
  mutate(subject = NULL,
  startWeight_in_pounds = startWeight * 2.20462 # convert to pounds
)
```

```
## # A tibble: 72 x 9
##      age gender treatment startWeight endWeight timeElapsed staffID1
##    <dbl>  <chr>     <chr>       <dbl>     <dbl>       <dbl>    <chr>
##  1    75 Female Treatment        76.7        NA          71       S4
##  2    73   Male   Control        99.4      99.9          30       S2
##  3    66   Male Treatment        51.0      84.2          75       S3
##  4    64 Female Treatment        91.7      95.7          52       S1
##  5    78   Male Treatment        51.0      64.4          37       S3
##  6    73 Female   Control        98.5      95.5          37       S4
##  7    72   Male   Control       118.0     115.0          32       S1
##  8    77   Male Treatment        91.7      77.4          69       S4
##  9    88 Female   Control        83.1      85.0          45       S4
## 10    76   Male Treatment        82.7      71.5          67       S4
## # ... with 62 more rows, and 2 more variables: staffID2 <chr>,
## #   startWeight_in_pounds <dbl>
```
…
## Sorting the data

<img src="images/arrange.png" width="120%" />

<img src="images/desc.png" width="120%" />

## Sorting the data {.smaller}


```r
cleanData %>% arrange(desc(startWeight))
```

```
## # A tibble: 42 x 11
##     subject   age gender treatment startWeight endWeight timeElapsed
##       <chr> <dbl>  <chr>     <chr>       <dbl>     <dbl>       <dbl>
##  1 TPID1673    72   Male   Control       118.0     115.0          32
##  2 TPID0706    80   Male Treatment       111.0      96.7          76
##  3 TPID0483    65   Male Treatment       104.0      98.1          32
##  4 TPID1157    83   Male Treatment       101.0      98.4          60
##  5 TPID1032    73   Male   Control        99.4      99.9          30
##  6 TPID1417    77   Male Treatment        97.7        NA          40
##  7 TPID1359    74   Male   Control        96.1      95.0          73
##  8 TPID0123    71   Male   Control        94.7      96.2          53
##  9 TPID1554    68   Male   Control        93.6      91.7          30
## 10 TPID1310    79   Male Treatment        92.9      89.8          30
## # ... with 32 more rows, and 4 more variables: staffID1 <chr>,
## #   staffID2 <chr>, diffWeight <dbl>, weightChangePerDay <dbl>
```
…
